^C:\USERS\DANIL\SOURCE\REPOS\CLASSCONSOLEAPPLICATION\CLASSCONSOLEAPPLICATION\X64\DEBUG\CLASSCONSOLEAPPLICATION.OBJ
C:\USERS\DANIL\SOURCE\REPOS\CLASSCONSOLEAPPLICATION\X64\DEBUG\CLASSCONSOLEAPPLICATION.EXE
C:\USERS\DANIL\SOURCE\REPOS\CLASSCONSOLEAPPLICATION\CLASSCONSOLEAPPLICATION\X64\DEBUG\CLASSCONSOLEAPPLICATION.ILK
C:\USERS\DANIL\SOURCE\REPOS\CLASSCONSOLEAPPLICATION\X64\DEBUG\CLASSCONSOLEAPPLICATION.PDB
